fr
"Oncle Hérick : Here you are at last, \N[1] ! Wasn't the trip too tiring?"
"\N[1] : It was, a hostess was with me all the way... I wonder if mom arrived in Bourg-Tranquille, I forgot my tablet in the boxes."
"Uncle Hérick: That's right, she called me earlier. She arrived safely, she gives you big kisses."
??? : ... Who it is... ?
"Uncle Hérick : I introduce you to her \N[1], she comes from the region of Sinnoh, we are going to welcome her while her mother finishes her move to Bourg-Tranquille. Would you like to show her our little village while I take her suitcase up and prepare dinner?"
"??? : Okay, good morning \N[1], I'm Kevin, I'll show you around our town."
\N[1] : Okay...
??? : ... Who is it... ?
"Uncle Hérick : I present you \N[1], He comes to us from the region of Sinnoh, we will welcome him while his mother finishes her move to Bourg-Tranquille. Would you like to show him our little village while I take his suitcase up and prepare dinner?"
"??? : Okay, good morning \N[1], I'm Laura, I'll show you around our town."
\N[1] :  Okay...
"The door is closed, I can't get in."
This Miltank is sleeping peacefully.
Kevin: I'll start by showing you the store and the Pokémon Center.
Laura: I'll start by showing you the store and the Pokémon Center.
"Kevin: This is a Pokémon center, there is one in almost every city and town, this is where you can heal your Pokémon when you have some..."
"\N[1] : I'm not sure if mom will ever let me go with a Pokémon... Since my brother disappeared, she doesn't want to hear about it..."
Kévin : ... Courage...
... ... ...
"Kevin: Well, follow me again, I'll take you to the Pokémon store."
"Kevin: Here we have a Pokémon store, where you can buy different items for yourself or your Pokémon."
\N[1] : Why explain all this to me? I am only 12 years old...
"Kevin: Well, grandpa told me to explain all this to you, he always says it's good to have knowledge..."
\N[1] : Grandpa? Isn't that your father?
"Kevin: No, my father passed away five years ago..."
... ... ...
"Kevin: Well, I'm going home, join us in the lab."
"Laura: This is a Pokémon center, there is one in almost every town and city, this is where you can heal your Pokémon when you have some..."
"\N[1] : I'm not sure if mom will ever let me go with a Pokémon... Since my brother disappeared, she doesn't want to hear about it..."
Laura : ... Courage...
... ... ...
"Laura : Well, follow me again, I'll take you to the Pokémon store."
"Laura :  Here we have a Pokémon store, where you can buy different items for you or your Pokémon."
\N[1] : Why explain all this to me? I am only 12 years old...
"Laura : Well, grandpa told me to explain it all to you, he always says it's good to have knowledge..."
\N[1] : Grandpa? Isn't that your father?
"Laura : No, my father passed away five years ago..."
... ... ...
"Laura : Well, I'm going home, so meet us in the lab."
"The door is closed, I can't get in."
"The door is closed, I can't get in."
"A week after my uncle's call, I finally arrived at Edelweiss village after a long journey."
"Sinnoh, I was going to miss him, but according to my mother, it is important that we start from scratch. She had a hard time leaving me alone with the hostess accompanying me for the trip, but it's not very surprising, it's been two months now since Jonathan disappeared, I miss him..."
\N|1] : I should join my uncle.
\N[1] : I should join my uncle.
\N|1] : I should join my uncle.
"\N[1] : As I was walking back to my Uncle's house, a strange voice echoed inside me..."
"??? : A pure soul, finally...  After 2500 years, a pure soul... Join me..."
"The door is closed, I can't get in."
This Miltank is sleeping peacefully.