fr
"Captain Joeyw : I'll be in my cabin if you're looking for me, I have to take care of a couple of things and then we'll be leaving right away.\nlYour cabin is the furthest to the left if you ever need to rest."
"Groom : Welcome to the Blue Titan. On my left, there is a bedroom, do not hesitate to go and rest there."
"Guard : Welcome on the Blue Titan, the captain's cabin is upstairs, he has put on his official clothes for the occasion."