fr
My wife and I are delighted to live here.
"Researcher : I spent the entire day reading, so there's nothing better than a cuppa to rest a little."
"My days are very tiring and the evenings just as much, since I have to take care of the children..."
"Young Woman : My husband works hard to bring some food to the table, I would like to work as well, but my back hurts so much... My husband said that he read in one of his books that a Mystic Water from the Route-Mystère hot springs could cure me, but he doesn't have any time to go there.../nlIf only someone could get there for me..."
Will you help the young woman ?
Yes
No
"\N[1] : Well, it seems I can help, here you go !"
You have helped the young woman !
"Young Woman : Thank you so much, now I'll be able to work at my best friend's store and help my husband pay for the house !"
"Young Woman : Thank you for helping me, thanks to you I can help my husband pay the morgage by working in Rézaire, feel free to stop by the shop !"
"By day, I work at the museum, and at night I look after my children, it is very tiring !"
"My husband and I spend our days working at Aiji's school , and I am mostly in charge of collecting and sorting the borrowed books."
Kid : My brother and I love to play on the Switch !
"My husband paid for this beautiful kitchen because I love to cook. No, he's not a macho kinda guy, I really wanted to have this kitchen and nothing will stop me from becoming a great cook !"
"Kid : My brother always win, what a bore."
"In the evening when work is done, I mope alone in my house..."
"Researcher : During the day, I teach at Aïji's school, at night, I prepare my classes : it's a tiring job..."