fr
"Kid : I love my brother's Buizel, it's so adorable !"
"\t[0,446] !"
"\t[0,418] !"
"Fisherman : Greetings my friend ! If you're looking for some Fishing Baits, come and say hi, tomorrow morning, in my store at the harbor !"
"Policeman : My kids are my whole life, I work hard so they can be happy."
Young Woman : It's so nice to relax after a day spent swimming !
"Young Woman : My Houndour and I are like two peas in a pod, I love him so much !/nl I mean, look at him, he's soooooo cuuuuuute !"
"\t[0,209] !"
\N[1] : This Snubbull looks really stupid...
"Young Woman : I live on my own in this house, I feel very lonely... Fortunately, during the day, I go swimming with my friend..."
"\t[0,228] sleeps peacefully"
"Kid : During the day, I have to look after my brother with the help of my Buizel, at night, I can have the family's computer all for myself !"
"Kid : My Munchlax spends all his time eating everything and anything, I bet he's still busy emptying the trashcan..."