fr
"\t[0,58] !"
"\N[1] : I'm not going to abandon Umisora, am I ?"
"\N[1] : I'm not going to abandon Chikyu, am I ?"
"\N[1] : I'm not going to abandon Karami, am I ?"
"Guard : Well, hello there. You'll see, the city of Akia is beautiful. Enjoy your stay."