fr
"\t[0,427] !"
"Hiker : I wanna change up my style, but I don't know what to wear..."
"Item Seller : Hello, I'm in charge of selling sports equipment, what can I do for you ?"
"\t[11,0]"
"\t[11,1]"
"\t[11,2]"
"\t[11,5]"
"\t[11,0]"
"\t[11,1]"
"\t[11,2]"
"\t[11,4]"
"Item Seller : Hello, what can I do for you ?"
"\t[11,0]"
"\t[11,1]"
"\t[11,2]"
"\t[11,5]"
"\t[11,0]"
"\t[11,1]"
"\t[11,2]"
"\t[11,4]"
"\t[11,0]"
"\t[11,1]"
"\t[11,2]"
"\t[11,5]"
"\t[11,0]"
"\t[11,1]"
"\t[11,2]"
"\t[11,4]"
"Corine : Oh.. Sorry, I was rambling..."
"\N[1] : I'm not going to abandon Umisora, am I ?"
"\N[1] : I'm not going to abandon Chikyu, am I ?"
"\N[1] : I'm not going to abandon  Karami, am I ?"
"Item Seller : Hello, I'm in charge of selling evolution stones, what can I do for you ?"